Modeling football outcomes
…
#> 
#> $round_table
#> # A tibble: 36 x 4
#>    Home           Away           Home_prob Observed
#>    <chr>          <chr>          <chr>     <chr>   
#>  1 Hellas Verona  Bologna FC     0.378     -       
#>  2 Inter          Bologna FC     0.415     -       
#>  3 Udinese Calcio SSC Napoli     0.522     -       
#>  4 ACF Fiorentina SSC Napoli     0.598     -       
#>  5 US Lecce       Lazio Roma     0.24      -       
#>  6 Inter          Lazio Roma     0.238     -       
#>  7 Brescia Calcio AS Bari        0.68      -       
#>  8 Reggina Calcio AS Bari        0.613     -       
#>  9 Udinese Calcio Vicenza Calcio 0.36      -       
#> 10 Brescia Calcio Vicenza Calcio 0.485     -       
#> # ... with 26 more rows
…
